<?xml version="1.0" standalone="no"?>
<!DOCTYPE svg PUBLIC "-//W3C//DTD SVG 1.1//EN" "http://www.w3.org/Graphics/SVG/1.1/DTD/svg11.dtd" >
<svg>
<metadata>
Created by FontForge 20110222 at Fri Nov  6 09:30:56 2015
 By www-data
Font data copyright Google 2012
</metadata>
<defs>
<font id="Roboto-Thin" horiz-adv-x="1121" >
  <font-face 
    font-family="Roboto"
    font-weight="100"
    font-stretch="normal"
    units-per-em="2048"
    panose-1="0 0 0 0 0 0 0 0 0 0"
    ascent="1638"
    descent="-410"
    x-height="1082"
    cap-height="1456"
    bbox="-157 -463 1793 1843"
    underline-thickness="100"
    underline-position="-100"
    unicode-range="U+0002-E000"
  />
<missing-glyph horiz-adv-x="748" 
d="M68 0v1365h544v-1365h-544zM136 68h408v1229h-408v-1229z" />
    <glyph glyph-name=".notdef" horiz-adv-x="748" 
d="M68 0v1365h544v-1365h-544zM136 68h408v1229h-408v-1229z" />
    <glyph glyph-name="glyph1" horiz-adv-x="2048" 
 />
    <glyph glyph-name="glyph1" horiz-adv-x="2048" 
 />
    <glyph glyph-name="uni000D" unicode="&#xd;" horiz-adv-x="490" 
 />
    <glyph glyph-name="uni0002" horiz-adv-x="0" 
 />
    <glyph glyph-name="uni0009" unicode="&#x9;" horiz-adv-x="0" 
 />
    <glyph glyph-name="space" unicode=" " horiz-adv-x="490" 
 />
    <glyph glyph-name="exclam" unicode="!" horiz-adv-x="397" 
d="M147 0v134h95v-134h-95zM167 478v978h54v-978h-54z" />
    <glyph glyph-name="quotedbl" unicode="&#x22;" horiz-adv-x="521" 
d="M120 1122l45 268v170h55v-167l-50 -271h-50zM301 1122l46 268v170h54v-167l-50 -271h-50z" />
    <glyph glyph-name="numbersign" unicode="#" horiz-adv-x="1265" 
d="M65 410v52h281l95 524h-300v54h310l75 416h56l-76 -416h365l76 416h56l-76 -416h254v-54h-264l-96 -524h285v-52h-294l-75 -410h-56l75 410h-364l-74 -410h-56l74 410h-271zM402 462h363l96 524h-365z" />
    <glyph glyph-name="dollar" unicode="$" 
d="M127 403l2 6h46q0 -199 121.5 -288t289.5 -89q163 0 262 92t99 220q0 130 -79 205.5t-292 152.5q-215 71 -311.5 156t-96.5 252q0 160 104.5 259.5t281.5 106.5v187h55v-187q181 -10 281.5 -120.5t97.5 -303.5l-2 -5h-47q0 166 -95 271.5t-265 105.5q-174 0 -265.5 -91.5
t-91.5 -220.5q0 -131 73.5 -208t297.5 -150q210 -73 309 -158t99 -250q0 -161 -104 -258.5t-277 -107.5v-188h-55v187q-189 6 -316 108t-122 316z" />
    <glyph glyph-name="percent" unicode="%" horiz-adv-x="1527" 
d="M114 1099v77q0 126 76 213.5t196 87.5q119 0 195 -87.5t76 -213.5v-77q0 -126 -75.5 -212.5t-193.5 -86.5q-122 0 -198 86.5t-76 212.5zM169 1099q0 -100 56.5 -172t162.5 -72q102 0 158 72t56 172v77q0 100 -56.5 173t-159.5 73t-160 -73.5t-57 -172.5v-77zM417 162
l711 1138l45 -31l-711 -1138zM870 279v78q0 125 75.5 212.5t195.5 87.5t196 -87t76 -213v-78q0 -126 -75.5 -213t-194.5 -87q-121 0 -197 87t-76 213zM925 279q0 -101 56 -173t162 -72q103 0 159 72t56 173v78q0 106 -56 175.5t-161 69.5q-103 0 -159.5 -70t-56.5 -175v-78z
" />
    <glyph glyph-name="ampersand" unicode="&#x26;" horiz-adv-x="1247" 
d="M115 352q0 114 67.5 211t188.5 199l51 41q-82 103 -121 188t-39 176q0 149 81.5 229.5t223.5 80.5q132 0 204 -72t72 -190q0 -84 -38.5 -142.5t-108.5 -114.5l-202 -161l475 -540q54 76 84.5 171t30.5 204h55q0 -125 -35 -227.5t-98 -188.5l185 -211l-2 -5h-60l-157 177
l-8 -8t-4 -5q-90 -89 -188.5 -137t-222.5 -48q-202 0 -318 100.5t-116 272.5zM169 352q0 -134 98 -226.5t282 -92.5q110 0 211 47.5t177 135.5l-449 509q-8 8 -15.5 17t-18.5 22l-52 -41q-137 -118 -185 -205.5t-48 -165.5zM317 1169q0 -79 35 -163t110 -172l209 166
q60 50 88 103.5t28 111.5q0 94 -56.5 151t-163.5 57q-120 0 -185 -72.5t-65 -181.5z" />
    <glyph glyph-name="quotesingle" unicode="'" horiz-adv-x="340" 
d="M120 1122l45 267v171h55v-169l-50 -269h-50z" />
    <glyph glyph-name="parenleft" unicode="(" horiz-adv-x="607" 
d="M148 566v20q0 338 120.5 632.5t290.5 397.5h6l16 -36q-153 -101 -266 -387.5t-113 -602.5v-26q0 -317 113 -603.5t266 -387.5l-16 -36h-6q-172 105 -291.5 390.5t-119.5 638.5z" />
    <glyph glyph-name="parenright" unicode=")" horiz-adv-x="623" 
d="M28 -427q152 101 265.5 387.5t113.5 603.5v26q0 316 -113.5 602.5t-265.5 387.5l16 36h6q169 -103 290 -397.5t121 -632.5v-20q0 -353 -120 -638.5t-291 -390.5h-6z" />
    <glyph glyph-name="asterisk" unicode="*" horiz-adv-x="856" 
d="M30 1141l18 54l362 -133l1 394h56l-7 -395l352 143l20 -53l-360 -137l249 -317l-47 -33l-242 322l-228 -325l-45 32l234 324z" />
    <glyph glyph-name="plus" unicode="+" horiz-adv-x="1151" 
d="M73 649v53h462v504h55v-504h481v-53h-481v-503h-55v503h-462z" />
    <glyph glyph-name="comma" unicode="," horiz-adv-x="383" 
d="M114 -258l67 246v171h54v-167l-70 -250h-51z" />
    <glyph glyph-name="hyphen" unicode="-" horiz-adv-x="607" 
d="M61 599v54h470v-54h-470z" />
    <glyph glyph-name="period" unicode="." horiz-adv-x="439" 
d="M173 0v130h86v-130h-86z" />
    <glyph glyph-name="slash" unicode="/" horiz-adv-x="782" 
d="M42 -125l608 1581h59l-608 -1581h-59z" />
    <glyph glyph-name="zero" unicode="0" horiz-adv-x="1167" 
d="M140 574v308q0 284 116 439.5t327 155.5t327.5 -155.5t116.5 -439.5v-308q0 -285 -115.5 -440t-326.5 -155t-328 155.5t-117 439.5zM194 576q0 -252 100.5 -397.5t290.5 -145.5q189 0 288.5 145t99.5 398v306q0 254 -100 397.5t-290 143.5t-289.5 -143.5t-99.5 -397.5
v-306z" />
    <glyph glyph-name="one" unicode="1" 
d="M207 1334v46l452 84v-1477h-54v1425z" />
    <glyph glyph-name="two" unicode="2" 
d="M123 1052q-5 177 111.5 301t311.5 124q181 0 290.5 -102.5t109.5 -288.5q0 -121 -78.5 -247t-221.5 -293l-417 -487l2 -5h793v-54h-871v54l477 550q136 157 198.5 271t62.5 211q0 159 -88 248t-257 89q-179 0 -277 -105t-98 -272h-46z" />
    <glyph glyph-name="three" unicode="3" 
d="M109 399l2 6h46q0 -162 118.5 -267t297.5 -105q180 0 280 92.5t100 256.5q0 170 -114.5 251.5t-310.5 81.5h-111v56h111q183 0 288 91t105 224q0 147 -90.5 242t-266.5 95q-162 0 -269 -95t-107 -253h-46l-2 6q-5 177 118.5 286.5t305.5 109.5q188 0 299.5 -106.5
t111.5 -288.5q0 -115 -72.5 -206t-195.5 -131q142 -35 221 -127t79 -232q0 -190 -121 -298.5t-313 -108.5q-185 0 -327 109.5t-137 310.5z" />
    <glyph glyph-name="four" unicode="4" 
d="M82 397v30l695 1029h65v-1005h252v-54h-252v-397h-54v397h-706zM166 451h622v929l-6 2l-78 -129z" />
    <glyph glyph-name="five" unicode="5" 
d="M188 377l2 6h47q0 -172 96 -261t261 -89q194 0 284.5 107t90.5 322q0 184 -90.5 290t-253.5 106q-160 0 -251.5 -53.5t-131.5 -158.5l-41 16l78 794h690v-53h-641l-61 -618q63 63 137.5 95t219.5 36q174 5 287 -119t113 -333q0 -223 -105 -354t-325 -131
q-177 0 -294 100.5t-112 297.5z" />
    <glyph glyph-name="six" unicode="6" 
d="M170 512v448q0 227 131.5 372t321.5 145q76 0 148.5 -16.5t136.5 -53.5l-21 -51q-66 38 -122.5 52.5t-141.5 14.5q-167 0 -283 -127t-116 -335v-255q47 109 150.5 180t239.5 71q197 0 309 -136t112 -361q0 -207 -121.5 -344t-309.5 -137q-190 0 -312 145.5t-122 387.5z
M224 513q0 -216 106 -348.5t274 -132.5q167 0 272 126t105 302q0 202 -96 322.5t-278 120.5q-153 0 -267.5 -102.5t-114.5 -244.5h-1v-43z" />
    <glyph glyph-name="seven" unicode="7" 
d="M77 1402v54h930v-54q-215 -250 -365.5 -570.5t-195.5 -740.5l-6 -91h-54l6 91q43 394 183.5 719t366.5 592h-865z" />
    <glyph glyph-name="eight" unicode="8" 
d="M98 379q0 133 84.5 231t224.5 135q-122 37 -195 127.5t-73 213.5q0 184 118.5 287.5t303.5 103.5q183 0 303 -104t120 -287q0 -122 -74.5 -213t-195.5 -128q139 -38 225.5 -136t86.5 -230q0 -192 -130.5 -296t-332.5 -104q-206 0 -335.5 104t-129.5 296zM152 374
q0 -161 115 -251t296 -90q176 0 292 90.5t116 250.5q0 154 -118 249t-292 95q-177 0 -293 -95t-116 -249zM193 1091q0 -146 104 -232.5t266 -86.5q157 0 262 87t105 232q0 143 -107 237.5t-262 94.5q-161 0 -264.5 -90.5t-103.5 -241.5z" />
    <glyph glyph-name="nine" unicode="9" 
d="M95 978q0 207 123 353t313 146q196 0 319 -133t123 -381v-503q0 -224 -126.5 -352.5t-334.5 -128.5q-78 0 -156 16t-157 47l16 57q75 -34 143 -50t154 -16q185 0 292 113t107 312v283q-56 -109 -158.5 -171t-229.5 -62q-188 0 -308 137.5t-120 332.5zM157 978
q0 -170 100 -293.5t266 -123.5q148 0 248 85.5t140 204.5v111q0 222 -104.5 341.5t-271.5 119.5q-168 0 -273 -134t-105 -311z" />
    <glyph glyph-name="colon" unicode=":" horiz-adv-x="364" 
d="M146 0v130h86v-130h-86zM146 949v130h86v-130h-86z" />
    <glyph glyph-name="semicolon" unicode=";" horiz-adv-x="364" 
d="M115 -258l67 246v171h54v-167l-70 -250h-51zM153 952v130h86v-130h-86z" />
    <glyph glyph-name="less" unicode="&#x3c;" horiz-adv-x="1053" 
d="M82 515v50l837 378v-58l-661 -308l-119 -37v-6l119 -36l661 -303v-59z" />
    <glyph glyph-name="equal" unicode="=" horiz-adv-x="1142" 
d="M147 436v54h834v-54h-834zM147 843v54h834v-54h-834z" />
    <glyph glyph-name="greater" unicode="&#x3e;" horiz-adv-x="1053" 
d="M114 137v59l660 307l118 36v6l-118 37l-660 304v58l836 -378v-50z" />
    <glyph glyph-name="question" unicode="?" horiz-adv-x="893" 
d="M98 1122q-2 170 96.5 262.5t253.5 92.5q164 0 258.5 -101t94.5 -266q0 -141 -62.5 -243t-190.5 -217q-69 -53 -84 -101.5t-15 -148.5h-54q1 117 20.5 165.5t104.5 126.5q121 116 174 197.5t53 222.5q0 146 -78 229t-221 83q-142 0 -220 -84.5t-81 -223.5h-46zM391 0v106
h82v-106h-82z" />
    <glyph glyph-name="at" unicode="@" horiz-adv-x="1902" 
d="M129 478q18 427 255.5 680t616.5 253q402 0 592.5 -234t173.5 -654q-10 -219 -114 -381.5t-296 -162.5q-83 0 -135 61t-61 169q-55 -114 -139 -172t-193 -58q-136 0 -203 119t-48 318q23 250 144 401t293 151q83 0 135 -27.5t115 -82.5l-49 -565q-11 -152 36.5 -205.5
t107.5 -53.5q158 0 248.5 134.5t101.5 354.5q20 396 -154 613.5t-559 217.5q-336 0 -564.5 -239.5t-248.5 -636.5q-20 -383 174.5 -629.5t551.5 -246.5q87 0 177.5 22t152.5 58l24 -46q-62 -40 -164 -64.5t-194 -24.5q-380 0 -588 249.5t-189 681.5zM632 416
q-19 -167 31.5 -275t163.5 -108q108 0 194 66.5t144 245.5l42 486q-34 39 -82.5 60.5t-112.5 21.5q-142 0 -248 -126.5t-132 -370.5z" />
    <glyph glyph-name="A" unicode="A" horiz-adv-x="1223" 
d="M34 0l544 1456h66l545 -1456h-59l-163 435h-712l-162 -435h-59zM275 489h672l-305 820l-28 82h-6l-27 -82z" />
    <glyph glyph-name="B" unicode="B" horiz-adv-x="1235" 
d="M200 0v1456h383q226 0 351 -93t125 -280q0 -130 -67 -219t-189 -111q136 -18 229 -119t93 -233q0 -191 -123.5 -296t-326.5 -105h-475zM254 54h421q184 0 290 91t106 254q0 134 -101.5 227t-284.5 93h-431v-665zM254 773h349q199 0 300 77.5t101 236.5
q0 156 -106.5 235.5t-314.5 79.5h-329v-629z" />
    <glyph glyph-name="C" unicode="C" horiz-adv-x="1327" 
d="M144 619v218q0 286 144 463t383 177q227 0 367 -119q136 -116 136 -328v-12l-2 -6h-46q0 197 -122.5 304t-332.5 107q-213 0 -343 -161t-130 -423v-220q0 -265 130 -425.5t343 -160.5q210 0 332.5 103t122.5 310h46l2 -6v-12q0 -214 -136 -330q-140 -118 -367 -119
q-239 0 -383 176.5t-144 463.5z" />
    <glyph glyph-name="D" unicode="D" horiz-adv-x="1340" 
d="M200 0v1456h403q251 0 426 -180t175 -459v-178q0 -280 -175 -459.5t-426 -179.5h-403zM254 54h349q227 0 387 166t160 419v181q0 250 -160 416t-387 166h-349v-1348z" />
    <glyph glyph-name="E" unicode="E" horiz-adv-x="1166" 
d="M200 0v1456h886v-54h-832v-616h730v-54h-730v-678h832v-54h-886z" />
    <glyph glyph-name="F" unicode="F" horiz-adv-x="1172" 
d="M200 0v1456h902v-54h-848v-630h746v-56h-746v-716h-54z" />
    <glyph glyph-name="G" unicode="G" horiz-adv-x="1406" 
d="M168 620v238q0 274 151 446.5t393 172.5q231 0 366.5 -119.5t138.5 -308.5l-2 -6h-45q-8 169 -124.5 274.5t-333.5 105.5q-221 0 -355.5 -157.5t-134.5 -405.5v-240q0 -260 139 -423.5t368 -163.5q161 0 281.5 47t161.5 101v424h-445v55h499v-504q-46 -64 -176.5 -120.5
t-320.5 -56.5q-250 0 -405.5 178t-155.5 463z" />
    <glyph glyph-name="H" unicode="H" horiz-adv-x="1438" 
d="M200 0v1456h54v-707h930v707h54v-1456h-54v695h-930v-695h-54z" />
    <glyph glyph-name="I" unicode="I" horiz-adv-x="534" 
d="M240 0v1456h54v-1456h-54z" />
    <glyph glyph-name="J" unicode="J" horiz-adv-x="1125" 
d="M96 395l2 6h46q0 -178 97 -273t280 -95q153 0 254 105t101 284v1034h54v-1034q0 -203 -114.5 -323t-294.5 -120q-200 0 -315 106q-110 102 -110 293v17z" />
    <glyph glyph-name="K" unicode="K" horiz-adv-x="1300" 
d="M200 0v1456h54v-692h238l618 692h64l2 -5l-639 -721l685 -724l-3 -6h-63l-679 711h-223v-711h-54z" />
    <glyph glyph-name="L" unicode="L" horiz-adv-x="1057" 
d="M200 0v1456h55v-1402h747v-54h-802z" />
    <glyph glyph-name="M" unicode="M" horiz-adv-x="1756" 
d="M200 0v1456h77l596 -1370h6l598 1370h79v-1456h-54v1361l-6 2l-598 -1363h-43l-595 1356l-6 -2v-1354h-54z" />
    <glyph glyph-name="N" unicode="N" horiz-adv-x="1449" 
d="M200 0v1456h55l934 -1353l6 2v1351h54v-1456h-54l-934 1356l-6 -2v-1354h-55z" />
    <glyph glyph-name="O" unicode="O" horiz-adv-x="1364" 
d="M133 619v218q0 294 145.5 467t402.5 173q256 0 403 -173t147 -467v-218q0 -295 -146 -467.5t-402 -172.5q-257 0 -403.5 172.5t-146.5 467.5zM188 619q0 -270 128.5 -428t366.5 -158t366 157.5t128 428.5v220q0 268 -129 426t-367 158q-237 0 -365 -158t-128 -426v-220z
" />
    <glyph glyph-name="P" unicode="P" horiz-adv-x="1230" 
d="M200 0v1456h455q226 0 348 -113.5t122 -301.5q0 -190 -121.5 -303t-348.5 -113h-401v-625h-54zM254 679h401q207 0 311.5 103t104.5 257q0 158 -104 260.5t-312 102.5h-401v-723z" />
    <glyph glyph-name="Q" unicode="Q" horiz-adv-x="1364" 
d="M133 619v218q0 294 145.5 467t402.5 173q256 0 403 -173t147 -467v-218q0 -182 -57.5 -320.5t-164.5 -218.5l254 -248l-39 -35l-262 251q-59 -34 -129.5 -51.5t-149.5 -17.5q-257 0 -403.5 172.5t-146.5 467.5zM188 619q0 -270 128.5 -428t366.5 -158t366 157.5
t128 428.5v220q0 268 -129 426t-367 158q-237 0 -365 -158t-128 -426v-220z" />
    <glyph glyph-name="R" unicode="R" horiz-adv-x="1340" 
d="M195 -1v1456h464q230 0 354 -99.5t124 -290.5q0 -123 -78.5 -223.5t-214.5 -130.5q157 -27 225 -115t68 -225v-137q0 -68 16.5 -122t54.5 -88v-25h-53q-36 41 -54 101.5t-18 135.5v133q0 148 -101.5 231t-289.5 83h-443v-684h-54zM249 737h400q223 0 328.5 94t105.5 234
q0 163 -106.5 249.5t-317.5 86.5h-410v-664z" />
    <glyph glyph-name="S" unicode="S" horiz-adv-x="1223" 
d="M105 404l2 6h45q0 -198 146 -287.5t337 -89.5q192 0 315.5 88t123.5 228q0 137 -100.5 219t-348.5 150q-249 67 -364.5 152.5t-115.5 249.5q0 163 136 260t347 97q213 0 348 -119q131 -116 131 -295v-11l-2 -6h-46q0 163 -120 270t-311 107q-198 0 -313.5 -88.5
t-115.5 -212.5t95.5 -206t345.5 -146q242 -64 365.5 -156.5t123.5 -262.5q0 -173 -141 -272.5t-353 -99.5q-219 1 -377 103q-153 99 -153 309v13z" />
    <glyph glyph-name="T" unicode="T" horiz-adv-x="1224" 
d="M55 1402v54h1114v-54h-530v-1402h-54v1402h-530z" />
    <glyph glyph-name="U" unicode="U" horiz-adv-x="1365" 
d="M185 469v987h54v-987q0 -205 124 -320.5t320 -115.5q195 0 319 115.5t124 320.5v987h54v-987q0 -238 -138 -364t-359 -126q-223 0 -360.5 126.5t-137.5 363.5z" />
    <glyph glyph-name="V" unicode="V" horiz-adv-x="1223" 
d="M35 1456h59l489 -1314l26 -79h6l26 79l489 1314h59l-544 -1456h-66z" />
    <glyph glyph-name="W" unicode="W" horiz-adv-x="1855" 
d="M61 1456h60l302 -1126l63 -229h6l63 229l344 1126h60l342 -1126l62 -229h6l65 229l300 1126h59l-392 -1456h-61l-361 1214l-48 145h-6l-46 -145l-364 -1214h-61z" />
    <glyph glyph-name="X" unicode="X" horiz-adv-x="1223" 
d="M53 0l524 743l-504 713h68l469 -671l471 671h67l-503 -713l524 -743h-67l-492 701l-491 -701h-66z" />
    <glyph glyph-name="Y" unicode="Y" horiz-adv-x="1223" 
d="M36 1456h66l481 -809l26 -50l27 50l483 809h66l-547 -903v-553h-55v553z" />
    <glyph glyph-name="Z" unicode="Z" horiz-adv-x="1224" 
d="M94 0v44l929 1359h-889v53h964v-38l-930 -1364h962v-54h-1036z" />
    <glyph glyph-name="bracketleft" unicode="[" horiz-adv-x="439" 
d="M181 -312v1976h283v-54h-229v-1868h229v-54h-283z" />
    <glyph glyph-name="backslash" unicode="\" horiz-adv-x="774" 
d="M57 1456h58l608 -1581h-58z" />
    <glyph glyph-name="bracketright" unicode="]" horiz-adv-x="439" 
d="M-8 -258h228v1868h-228v54h283v-1976h-283v54z" />
    <glyph glyph-name="asciicircum" unicode="^" horiz-adv-x="849" 
d="M91 729l299 727h52l299 -727h-61l-222 543l-40 114h-6l-43 -114l-219 -543h-59z" />
    <glyph glyph-name="underscore" unicode="_" horiz-adv-x="845" 
d="M-1 0h846v-54h-846v54z" />
    <glyph glyph-name="grave" unicode="`" horiz-adv-x="537" 
d="M103 1471l2 5h89l220 -261l-2 -5h-75z" />
    <glyph glyph-name="a" unicode="a" horiz-adv-x="1081" 
d="M92 284q0 136 128.5 228t321.5 92h309v158q0 135 -86.5 210.5t-243.5 75.5q-147 0 -236.5 -71t-89.5 -183l-45 2l-2 5v14q0 117 98 199q104 88 275 88q174 0 279 -88t105 -254v-542q0 -57 6.5 -111t21.5 -107h-60q-13 71 -17.5 106.5t-4.5 76.5v17q-56 -98 -167 -159.5
t-269 -61.5q-151 0 -237 82.5t-86 222.5zM146 280q0 -109 73.5 -178.5t195.5 -69.5q161 0 272.5 71t163.5 203v243h-306q-168 0 -283.5 -77.5t-115.5 -191.5z" />
    <glyph glyph-name="b" unicode="b" 
d="M170 0v1560h54v-671q54 99 147 156t220 57q191 0 299.5 -151.5t108.5 -408.5v-21q0 -250 -108 -396t-298 -146q-128 0 -223 51.5t-148 139.5l-7 -170h-45zM224 268q40 -107 134 -171t236 -64q171 0 260 132t89 356v21q0 225 -90 365.5t-261 140.5q-157 0 -244 -79
t-124 -194v-507z" />
    <glyph glyph-name="c" unicode="c" horiz-adv-x="1039" 
d="M97 520v42q0 242 117 391t323 149q169 0 285 -98q113 -95 112 -266v-12l-2 -6h-46q0 159 -102 243.5t-247 84.5q-190 0 -288 -136t-98 -350v-42q0 -216 98 -351.5t290 -135.5q137 0 242 75t105 225h46l2 -6v-10q0 -151 -116 -243q-120 -94 -279 -95q-207 0 -324.5 149
t-117.5 392z" />
    <glyph glyph-name="d" unicode="d" 
d="M122 521v21q0 257 108 408.5t300 151.5q127 0 219.5 -57t147.5 -156v671h54v-1560h-52l-2 168q-54 -87 -148.5 -138t-220.5 -51q-191 0 -298.5 146t-107.5 396zM178 521q0 -224 88.5 -356t260.5 -132q141 0 234.5 64t135.5 171v507q-39 116 -126 194.5t-242 78.5
q-172 0 -261.5 -140.5t-89.5 -365.5v-21z" />
    <glyph glyph-name="e" unicode="e" horiz-adv-x="1032" 
d="M87 500v64q0 233 130 385.5t321 152.5q183 0 298.5 -120t115.5 -322v-83h-811v-13v-64q0 -196 115 -331.5t285 -135.5q121 0 202.5 33t139.5 99l29 -42q-64 -71 -155.5 -107.5t-215.5 -36.5q-185 0 -319.5 149.5t-134.5 371.5zM149 637l3 -6h746v33q0 165 -100 274.5
t-260 109.5q-161 0 -268 -117.5t-121 -293.5z" />
    <glyph glyph-name="f" unicode="f" horiz-adv-x="645" 
d="M66 1027v55h188v178q0 153 74.5 237t208.5 84q33 0 65.5 -4t62.5 -13l-8 -52q-32 8 -56.5 11.5t-62.5 3.5q-108 0 -169 -71t-61 -196v-178h286v-55h-286v-1027h-54v1027h-188z" />
    <glyph glyph-name="g" unicode="g" 
d="M121 521v21q0 257 108 408.5t300 151.5q126 0 219 -57t148 -157l8 194h46v-1088q0 -206 -108.5 -318.5t-300.5 -112.5q-79 0 -164.5 16.5t-149.5 45.5l16 54q73 -32 141 -47.5t155 -15.5q175 0 265.5 97.5t90.5 280.5v172q-55 -86 -149 -136.5t-219 -50.5
q-191 0 -298.5 146t-107.5 396zM176 521q0 -224 89 -356t261 -132q141 0 234 63.5t135 169.5v512q-40 115 -126.5 192.5t-240.5 77.5q-172 0 -262 -140.5t-90 -365.5v-21z" />
    <glyph glyph-name="h" unicode="h" 
d="M172 0v1560h54v-706q50 118 147 183t237 65q169 0 256.5 -107t87.5 -337v-658h-55v660q0 213 -78.5 300.5t-209.5 87.5q-175 0 -268 -104.5t-117 -267.5v-676h-54z" />
    <glyph glyph-name="i" unicode="i" horiz-adv-x="422" 
d="M185 0v1082h54v-1082h-54zM185 1422v138h54v-138h-54z" />
    <glyph glyph-name="j" unicode="j" horiz-adv-x="445" 
d="M-157 -417l13 52q19 -6 46.5 -12t52.5 -6q110 0 170.5 77t60.5 217v1171h54v-1171q0 -167 -75 -257.5t-210 -90.5q-29 0 -55 5t-57 15zM180 1426v134h54v-134h-54z" />
    <glyph glyph-name="k" unicode="k" horiz-adv-x="969" 
d="M172 0v1560h54v-953h127l492 475h63l2 -6l-496 -487l534 -584l-2 -5h-63l-509 553h-148v-553h-54z" />
    <glyph glyph-name="l" unicode="l" horiz-adv-x="422" 
d="M185 0v1560h54v-1560h-54z" />
    <glyph glyph-name="m" unicode="m" horiz-adv-x="1836" 
d="M161 0v1082h47l7 -223q49 115 141 179t224 64q140 0 227.5 -71.5t120.5 -220.5q43 138 140.5 215.5t243.5 77.5q179 0 272 -117t93 -368v-617h-55v619q0 235 -84 332t-224 97q-172 0 -260 -103.5t-110 -267.5q0 -20 1 -34.5t1 -28.5v-615h-55v619q0 236 -84 332.5
t-225 96.5q-168 0 -255 -98.5t-111 -255.5v-694h-55z" />
    <glyph glyph-name="n" unicode="n" 
d="M172 0v1082h46l7 -223q49 116 143 179.5t232 63.5q177 0 265.5 -111.5t88.5 -353.5v-637h-54v639q0 225 -80.5 317t-218.5 92q-175 0 -264 -104.5t-111 -267.5v-676h-54z" />
    <glyph glyph-name="o" unicode="o" 
d="M87 520v42q0 238 131.5 389t341.5 151q211 0 342.5 -151t131.5 -389v-42q0 -239 -131.5 -390t-340.5 -151q-211 0 -343 151t-132 390zM141 520q0 -204 114 -345.5t307 -141.5q190 0 304 142t114 345v42q0 199 -115 342.5t-305 143.5q-191 0 -305 -143.5t-114 -342.5v-42z
" />
    <glyph glyph-name="p" unicode="p" 
d="M170 -416v1498h42l11 -194q54 100 147 157t221 57q191 0 299.5 -151.5t108.5 -408.5v-21q0 -250 -108 -396t-298 -146q-127 0 -221.5 51t-147.5 138v-584h-54zM224 269q40 -108 134 -172t236 -64q171 0 260.5 132t89.5 356v21q0 225 -90.5 365.5t-261.5 140.5
q-157 0 -244 -79t-124 -194v-506z" />
    <glyph glyph-name="q" unicode="q" 
d="M122 521v21q0 257 108 408.5t300 151.5q127 0 219.5 -57t147.5 -157l5 194h49v-1498h-54v584q-55 -87 -149 -138t-220 -51q-191 0 -298.5 146t-107.5 396zM178 521q0 -224 88.5 -356t260.5 -132q141 0 234.5 64t135.5 171v507q-39 116 -126 194.5t-242 78.5
q-172 0 -261.5 -140.5t-89.5 -365.5v-21z" />
    <glyph glyph-name="r" unicode="r" horiz-adv-x="680" 
d="M172 0v1082h44l10 -188v-37q45 116 134 180.5t219 64.5q23 0 42.5 -3.5t33.5 -7.5l-6 -48l-70 6q-145 0 -235.5 -93.5t-117.5 -246.5v-709h-54z" />
    <glyph glyph-name="s" unicode="s" horiz-adv-x="1019" 
d="M112 269l2 6h44q8 -128 110 -185t241 -57q150 0 238 70t88 162q0 86 -73.5 156.5t-256.5 110.5q-193 41 -279.5 105.5t-86.5 191.5q0 116 98 194.5t264 78.5q179 0 282 -84q98 -80 98 -207v-12l-2 -6h-46q0 106 -89.5 180.5t-242.5 74.5q-152 0 -230 -65.5t-78 -151.5
q0 -85 66 -145t262 -105q181 -42 274.5 -114.5t93.5 -202.5q0 -127 -104 -206t-276 -79q-189 1 -297 85q-101 79 -100 190v15z" />
    <glyph glyph-name="t" unicode="t" horiz-adv-x="633" 
d="M29 1027v55h200v292h55v-292h266v-55h-266v-748q0 -133 45 -189.5t119 -56.5q27 0 48 2t58 7l10 -49q-25 -8 -52 -11t-61 -3q-109 0 -165.5 71t-56.5 229v748h-200z" />
    <glyph glyph-name="u" unicode="u" 
d="M168 465v617h54v-619q0 -220 81 -325t219 -105q169 0 259.5 83t115.5 220v746h55v-1082h-45l-8 194q-51 -103 -145.5 -159t-229.5 -56q-167 0 -261.5 118.5t-94.5 367.5z" />
    <glyph glyph-name="v" unicode="v" horiz-adv-x="978" 
d="M43 1082h58l334 -853l51 -146h6l52 146l333 853h58l-421 -1081l1 -1h-52z" />
    <glyph glyph-name="w" unicode="w" horiz-adv-x="1550" 
d="M83 1082h62l221 -769l56 -222l6 -1l71 223l243 769h55l242 -769l70 -223l6 1l58 222l220 769h63l-315 -1082h-54l-267 813l-48 183h-6l-52 -183l-263 -813h-54z" />
    <glyph glyph-name="x" unicode="x" horiz-adv-x="978" 
d="M55 0l400 555l-380 527h68l346 -480l345 480h68l-380 -527l400 -555h-67l-367 508l-366 -508h-67z" />
    <glyph glyph-name="y" unicode="y" horiz-adv-x="978" 
d="M43 1082h59l356 -886l40 -108h6l6 16l374 978h60l-481 -1262q-44 -114 -102.5 -185.5t-186.5 -71.5q-19 0 -42 3.5t-34 7.5l9 51q11 -3 33 -6t34 -3q92 0 143.5 54t91.5 160l65 176z" />
    <glyph glyph-name="z" unicode="z" horiz-adv-x="978" 
d="M87 0v44l711 983h-680v55h753v-48l-711 -980h770v-54h-843z" />
    <glyph glyph-name="braceleft" unicode="{" horiz-adv-x="660" 
d="M73 543v66q128 0 189 72t61 204v247q0 171 73 290.5t246 174.5l15 -45q-143 -46 -211.5 -155.5t-68.5 -264.5v-247q0 -120 -52 -202t-159 -107q107 -26 159 -109t52 -202v-245q0 -154 70.5 -260t214.5 -155l-20 -46q-173 55 -246 173t-73 288v245q0 132 -61 205t-189 73z
" />
    <glyph glyph-name="bar" unicode="|" horiz-adv-x="406" 
d="M181 -270v1726h54v-1726h-54z" />
    <glyph glyph-name="braceright" unicode="}" horiz-adv-x="660" 
d="M0 -395q143 49 213.5 155t70.5 260v245q0 119 51.5 202t159.5 109q-108 25 -159.5 107t-51.5 202v247q0 155 -68.5 264.5t-210.5 155.5l14 45q172 -55 245.5 -174.5t73.5 -290.5v-247q0 -132 61 -204t189 -72v-66q-128 0 -189 -73.5t-61 -204.5v-245q0 -171 -73 -288.5
t-246 -172.5z" />
    <glyph glyph-name="asciitilde" unicode="~" horiz-adv-x="1412" 
d="M156 474q0 128 73.5 214t188.5 86q86 0 158.5 -39.5t164.5 -120.5q67 -62 125 -90t121 -28q86 0 144.5 70.5t58.5 186.5l61 -13q0 -121 -75.5 -209t-188.5 -88q-87 0 -158.5 38t-162.5 121q-68 59 -127.5 88.5t-120.5 29.5q-89 0 -146 -68t-57 -190z" />
    <glyph glyph-name="uni00A0" unicode="&#xa0;" horiz-adv-x="490" 
 />
    <glyph glyph-name="cent" unicode="&#xa2;" horiz-adv-x="1110" 
d="M134 520v42q0 234 110 381.5t305 157.5v217h55v-217q158 -10 264.5 -107.5t103.5 -267.5l-3 -6h-46q0 159 -102 243.5t-247 84.5q-190 0 -288 -136t-98 -350v-42q0 -216 98 -351.5t290 -135.5q137 0 242 75t105 225h46l2 -6q4 -152 -106 -245t-261 -102v-225h-55v225
q-196 11 -305.5 158t-109.5 382z" />
    <glyph glyph-name="sterling" unicode="&#xa3;" horiz-adv-x="1150" 
d="M65 667v54h241l-11 319q0 204 101 320.5t270 116.5q175 0 256 -102t78 -280l-2 -5h-47q0 176 -73.5 254.5t-211.5 78.5q-147 0 -232 -100t-85 -283l11 -319h478v-54h-476l8 -201q0 -125 -36 -235.5t-102 -176.5h808l1 -54h-912v54h10q89 16 133 145.5t44 266.5l-8 201
h-243z" />
    <glyph glyph-name="yen" unicode="&#xa5;" horiz-adv-x="1207" 
d="M58 1456h65l452 -718l24 -51h5l24 51l451 718h66l-489 -780h424v-55h-452v-240h452v-55h-452v-326h-54v326h-450v55h450v240h-450v55h421z" />
    <glyph glyph-name="dieresis" unicode="&#xa8;" horiz-adv-x="906" 
d="M155 1338v118h137v-118h-137zM625 1338v118h136v-118h-136z" />
    <glyph glyph-name="copyright" unicode="&#xa9;" horiz-adv-x="1666" 
d="M123 729q0 315 207 531t503 216q295 0 502.5 -216t207.5 -531q0 -316 -207.5 -533t-502.5 -217t-502.5 217t-207.5 533zM179 729q0 -290 191.5 -492.5t462.5 -202.5q269 0 461.5 202.5t192.5 492.5q0 289 -192 490.5t-462 201.5q-271 0 -462.5 -201.5t-191.5 -490.5z
M506 669v119q0 172 88.5 279.5t231.5 107.5q139 0 218 -79.5t76 -227.5l-3 -6h-44q0 129 -64 194.5t-183 65.5q-123 0 -194 -95t-71 -238v-120q0 -145 70.5 -238.5t194.5 -93.5q120 0 183 63.5t63 195.5h44l3 -6q3 -150 -75.5 -229t-217.5 -79q-144 0 -232 107t-88 280z" />
    <glyph glyph-name="guillemotleft" unicode="&#xab;" horiz-adv-x="905" 
d="M145 516v19l295 370h70l-294 -380l294 -379h-70zM432 516v19l295 370h70l-294 -380l294 -379h-70z" />
    <glyph glyph-name="uni00AD" unicode="&#xad;" horiz-adv-x="607" 
d="M61 599v54h470v-54h-470z" />
    <glyph glyph-name="registered" unicode="&#xae;" horiz-adv-x="1674" 
d="M115 729q0 315 207 531t503 216q295 0 502.5 -216t207.5 -531q0 -316 -207.5 -533t-502.5 -217q-296 0 -503 217t-207 533zM170 729q0 -290 192 -492.5t463 -202.5q269 0 461.5 202.5t192.5 492.5q0 289 -192 490.5t-462 201.5q-271 0 -463 -201.5t-192 -490.5zM593 316
v850h239q143 0 216 -61t73 -179q0 -73 -40 -125t-113 -81q70 -22 101 -75.5t31 -129.5v-56q0 -38 4 -71.5t13 -55.5v-16h-59q-10 21 -12 61.5t-2 82.5v54q0 94 -42 134t-142 40h-212v-372h-55zM648 744h205q91 0 152 48t61 135q0 96 -52.5 140t-181.5 44h-184v-367z" />
    <glyph glyph-name="acute" unicode="&#xb4;" horiz-adv-x="511" 
d="M109 1217l220 261h78l2 -5l-231 -261h-67z" />
    <glyph glyph-name="cedilla" unicode="&#xb8;" horiz-adv-x="490" 
d="M81 -386q104 0 180.5 36t76.5 105q0 64 -45.5 89t-163.5 35l25 121h53l-11 -76q91 -7 144 -45.5t53 -123.5q0 -87 -79 -138.5t-226 -51.5z" />
    <glyph glyph-name="guillemotright" unicode="&#xbb;" horiz-adv-x="897" 
d="M128 171l293 379l-293 390h70l294 -380v-19l-294 -370h-70zM418 171l293 379l-293 390h70l294 -380v-19l-294 -370h-70z" />
    <glyph glyph-name="Oacute" unicode="&#xd3;" horiz-adv-x="1364" 
d="M133 619v218q0 294 145.5 467t402.5 173q256 0 403 -173t147 -467v-218q0 -295 -146 -467.5t-402 -172.5q-257 0 -403.5 172.5t-146.5 467.5zM188 619q0 -270 128.5 -428t366.5 -158t366 157.5t128 428.5v220q0 268 -129 426t-367 158q-237 0 -365 -158t-128 -426v-220z
M619 1582l220 261h78l2 -5l-231 -261h-67z" />
    <glyph glyph-name="oacute" unicode="&#xf3;" 
d="M87 520v42q0 238 131.5 389t341.5 151q211 0 342.5 -151t131.5 -389v-42q0 -239 -131.5 -390t-340.5 -151q-211 0 -343 151t-132 390zM141 520q0 -204 114 -345.5t307 -141.5q190 0 304 142t114 345v42q0 199 -115 342.5t-305 143.5q-191 0 -305 -143.5t-114 -342.5v-42z
M525 1239l220 261h78l2 -5l-231 -261h-67z" />
    <glyph glyph-name="Aogonek" unicode="&#x104;" horiz-adv-x="1223" 
d="M34 0l544 1456h66l545 -1456h-59l-163 435h-712l-162 -435h-59zM275 489h672l-305 820l-28 82h-6l-27 -82zM977 -223q0 61 42 123.5t108 119.5l52 -20q-76 -69 -112 -116.5t-36 -106.5q0 -23 16 -51.5t68 -28.5q35 0 60 10.5t50 27.5l16 -48q-24 -18 -54.5 -31t-71.5 -13
q-61 0 -99.5 35.5t-38.5 98.5z" />
    <glyph glyph-name="aogonek" unicode="&#x105;" horiz-adv-x="1081" 
d="M92 284q0 136 128.5 228t321.5 92h309v158q0 135 -86.5 210.5t-243.5 75.5q-147 0 -236.5 -71t-89.5 -183l-45 2l-2 5q-6 126 98 213.5t275 87.5q174 0 279 -88t105 -254v-542q0 -57 6.5 -111t21.5 -107h-60q-13 71 -17.5 106.5t-4.5 76.5v17q-56 -98 -167 -159.5
t-269 -61.5q-151 0 -237 82.5t-86 222.5zM146 280q0 -109 73.5 -178.5t195.5 -69.5q161 0 272.5 71t163.5 203v243h-306q-168 0 -283.5 -77.5t-115.5 -191.5zM721 -223q0 61 42 123.5t108 119.5l52 -20q-76 -69 -112 -116.5t-36 -106.5q0 -23 16 -51.5t68 -28.5
q35 0 60 10.5t50 27.5l16 -48q-24 -18 -54.5 -31t-71.5 -13q-61 0 -99.5 35.5t-38.5 98.5z" />
    <glyph glyph-name="Cacute" unicode="&#x106;" horiz-adv-x="1327" 
d="M144 619v218q0 286 144 463t383 177q228 0 367.5 -119t135.5 -340l-2 -6h-46q0 197 -122.5 304t-332.5 107q-213 0 -343 -161t-130 -423v-220q0 -265 130 -425.5t343 -160.5q210 0 332.5 103t122.5 310h46l2 -6q4 -224 -135.5 -342.5t-367.5 -118.5q-239 0 -383 176.5
t-144 463.5zM621 1582l220 261h78l2 -5l-231 -261h-67z" />
    <glyph glyph-name="cacute" unicode="&#x107;" horiz-adv-x="1039" 
d="M97 520v42q0 242 117 391t323 149q168 0 284.5 -98.5t112.5 -277.5l-2 -6h-46q0 159 -102 243.5t-247 84.5q-190 0 -288 -136t-98 -350v-42q0 -216 98 -351.5t290 -135.5q137 0 242 75t105 225h46l2 -6q4 -159 -116.5 -253.5t-278.5 -94.5q-207 0 -324.5 149t-117.5 392z
M490 1239l220 261h78l2 -5l-231 -261h-67z" />
    <glyph glyph-name="Eogonek" unicode="&#x118;" horiz-adv-x="1166" 
d="M200 0v1456h886v-54h-832v-616h730v-54h-730v-678h832v-54h-886zM451 -223q0 61 42 123.5t108 119.5l52 -20q-76 -69 -112 -116.5t-36 -106.5q0 -23 16 -51.5t68 -28.5q35 0 60 10.5t50 27.5l16 -48q-24 -18 -54.5 -31t-71.5 -13q-61 0 -99.5 35.5t-38.5 98.5z" />
    <glyph glyph-name="eogonek" unicode="&#x119;" horiz-adv-x="1032" 
d="M87 500v64q0 233 130 385.5t321 152.5q183 0 298.5 -120t115.5 -322v-83h-811v-13v-64q0 -196 115 -331.5t285 -135.5q121 0 202.5 33t139.5 99l29 -42q-64 -71 -155.5 -107.5t-215.5 -36.5q-185 0 -319.5 149.5t-134.5 371.5zM149 637l3 -6h746v33q0 165 -100 274.5
t-260 109.5q-161 0 -268 -117.5t-121 -293.5zM620 -165q0 61 42 123.5t108 119.5l52 -20q-76 -69 -112 -116.5t-36 -106.5q0 -23 16 -51.5t68 -28.5q35 0 60 10.5t50 27.5l16 -48q-24 -18 -54.5 -31t-71.5 -13q-61 0 -99.5 35.5t-38.5 98.5z" />
    <glyph glyph-name="Lslash" unicode="&#x141;" horiz-adv-x="1061" 
d="M8 658v57l184 58v683h55v-665l351 111v-57l-351 -111v-680h747v-54h-802v716z" />
    <glyph glyph-name="lslash" unicode="&#x142;" horiz-adv-x="505" 
d="M17 684v59l215 85v732h54v-710l201 80v-59l-201 -80v-791h-54v769z" />
    <glyph glyph-name="Nacute" unicode="&#x143;" horiz-adv-x="1449" 
d="M200 0v1456h55l934 -1353l6 2v1351h54v-1456h-54l-934 1356l-6 -2v-1354h-55zM669 1561l220 261h78l2 -5l-231 -261h-67z" />
    <glyph glyph-name="nacute" unicode="&#x144;" 
d="M172 0v1082h46l7 -223q49 116 143 179.5t232 63.5q177 0 265.5 -111.5t88.5 -353.5v-637h-54v639q0 225 -80.5 317t-218.5 92q-175 0 -264 -104.5t-111 -267.5v-676h-54zM521 1239l220 261h78l2 -5l-231 -261h-67z" />
    <glyph glyph-name="Sacute" unicode="&#x15a;" horiz-adv-x="1223" 
d="M105 404l2 6h45q0 -198 146 -287.5t337 -89.5q192 0 315.5 88t123.5 228q0 137 -100.5 219t-348.5 150q-249 67 -364.5 152.5t-115.5 249.5q0 163 136 260t347 97q213 0 348 -119t131 -306l-2 -6h-46q0 163 -120 270t-311 107q-198 0 -313.5 -88.5t-115.5 -212.5
t95.5 -206t345.5 -146q242 -64 365.5 -156.5t123.5 -262.5q0 -173 -141 -272.5t-353 -99.5q-219 0 -377 102.5t-153 322.5zM577 1582l220 261h78l2 -5l-231 -261h-67z" />
    <glyph glyph-name="sacute" unicode="&#x15b;" horiz-adv-x="1019" 
d="M112 269l2 6h44q8 -128 110 -185t241 -57q150 0 238 70t88 162q0 86 -73.5 156.5t-256.5 110.5q-193 41 -279.5 105.5t-86.5 191.5q0 116 98 194.5t264 78.5q179 0 282 -84t98 -219l-2 -6h-46q0 106 -89.5 180.5t-242.5 74.5q-152 0 -230 -65.5t-78 -151.5q0 -85 66 -145
t262 -105q181 -42 274.5 -114.5t93.5 -202.5q0 -127 -104 -206t-276 -79q-189 0 -296.5 84.5t-100.5 205.5zM451 1239l220 261h78l2 -5l-231 -261h-67z" />
    <glyph glyph-name="Zacute" unicode="&#x179;" horiz-adv-x="1224" 
d="M94 0v44l929 1359h-889v53h964v-38l-930 -1364h962v-54h-1036zM552 1561l220 261h78l2 -5l-231 -261h-67z" />
    <glyph glyph-name="zacute" unicode="&#x17a;" horiz-adv-x="978" 
d="M87 0v44l711 983h-680v55h753v-48l-711 -980h770v-54h-843zM467 1218l220 261h78l2 -5l-231 -261h-67z" />
    <glyph glyph-name="Zdotaccent" unicode="&#x17b;" horiz-adv-x="1224" 
d="M94 0v44l929 1359h-889v53h964v-38l-930 -1364h962v-54h-1036zM560 1667v138h95v-138h-95z" />
    <glyph glyph-name="zdotaccent" unicode="&#x17c;" horiz-adv-x="978" 
d="M87 0v44l711 983h-680v55h753v-48l-711 -980h770v-54h-843zM475 1324v138h95v-138h-95z" />
    <glyph glyph-name="circumflex" unicode="&#x2c6;" horiz-adv-x="796" 
d="M152 1252v17l210 206h80l214 -210v-13h-70l-185 186l-183 -186h-66z" />
    <glyph glyph-name="ring" unicode="&#x2da;" horiz-adv-x="660" 
d="M204 1338q0 56 40 97.5t96 41.5q54 0 93.5 -41t39.5 -98t-39 -96t-94 -39q-56 0 -96 39t-40 96zM261 1338q0 -34 23 -56.5t56 -22.5q32 0 54 22t22 57t-22 58.5t-54 23.5q-33 0 -56 -23.5t-23 -58.5z" />
    <glyph glyph-name="tilde" unicode="&#x2dc;" horiz-adv-x="818" 
d="M75 1286q0 80 50 129.5t126 49.5q72 0 153 -62t134 -62q50 0 85.5 39.5t35.5 101.5l55 -10q0 -82 -51 -134t-125 -52q-76 0 -154 62.5t-133 62.5q-52 0 -86.5 -37t-34.5 -98z" />
    <glyph glyph-name="uni2000" unicode="&#x2000;" horiz-adv-x="921" 
 />
    <glyph glyph-name="uni2001" unicode="&#x2001;" horiz-adv-x="1843" 
 />
    <glyph glyph-name="uni2002" unicode="&#x2002;" horiz-adv-x="921" 
 />
    <glyph glyph-name="uni2003" unicode="&#x2003;" horiz-adv-x="1843" 
 />
    <glyph glyph-name="uni2004" unicode="&#x2004;" horiz-adv-x="614" 
 />
    <glyph glyph-name="uni2005" unicode="&#x2005;" horiz-adv-x="460" 
 />
    <glyph glyph-name="uni2006" unicode="&#x2006;" horiz-adv-x="307" 
 />
    <glyph glyph-name="uni2007" unicode="&#x2007;" horiz-adv-x="307" 
 />
    <glyph glyph-name="uni2008" unicode="&#x2008;" horiz-adv-x="230" 
 />
    <glyph glyph-name="uni2009" unicode="&#x2009;" horiz-adv-x="368" 
 />
    <glyph glyph-name="uni200A" unicode="&#x200a;" horiz-adv-x="102" 
 />
    <glyph glyph-name="uni2010" unicode="&#x2010;" horiz-adv-x="607" 
d="M61 599v54h470v-54h-470z" />
    <glyph glyph-name="uni2011" unicode="&#x2011;" horiz-adv-x="607" 
d="M61 599v54h470v-54h-470z" />
    <glyph glyph-name="figuredash" unicode="&#x2012;" horiz-adv-x="607" 
d="M61 599v54h470v-54h-470z" />
    <glyph glyph-name="endash" unicode="&#x2013;" horiz-adv-x="1412" 
d="M161 721v54h1085v-54h-1085z" />
    <glyph glyph-name="emdash" unicode="&#x2014;" horiz-adv-x="1673" 
d="M131 721v54h1336v-54h-1336z" />
    <glyph glyph-name="quoteleft" unicode="&#x2018;" horiz-adv-x="320" 
d="M100 1123v166l70 271h50l-66 -267v-170h-54z" />
    <glyph glyph-name="quoteright" unicode="&#x2019;" horiz-adv-x="320" 
d="M100 1123l66 268v169h54v-166l-70 -271h-50z" />
    <glyph glyph-name="quotesinglbase" unicode="&#x201a;" horiz-adv-x="300" 
d="M100 -171l46 269v170h54v-168l-50 -271h-50z" />
    <glyph glyph-name="quotedblleft" unicode="&#x201c;" horiz-adv-x="500" 
d="M100 1123v166l70 271h50l-66 -267v-170h-54zM280 1123v166l70 271h50l-66 -267v-170h-54z" />
    <glyph glyph-name="quotedblright" unicode="&#x201d;" horiz-adv-x="502" 
d="M100 1123l66 268v169h54v-166l-70 -271h-50zM282 1123l66 268v169h54v-166l-70 -271h-50z" />
    <glyph glyph-name="quotedblbase" unicode="&#x201e;" horiz-adv-x="481" 
d="M100 -169l45 269v169h55v-166l-50 -272h-50zM281 -169l46 269v169h54v-166l-50 -272h-50z" />
    <glyph glyph-name="ellipsis" unicode="&#x2026;" horiz-adv-x="1255" 
d="M211 0v130h86v-130h-86zM595 0v130h86v-130h-86zM964 0v130h86v-130h-86z" />
    <glyph glyph-name="uni202F" unicode="&#x202f;" horiz-adv-x="368" 
 />
    <glyph glyph-name="guilsinglleft" unicode="&#x2039;" horiz-adv-x="604" 
d="M108 551v19l295 370h70l-294 -380l294 -379h-70z" />
    <glyph glyph-name="guilsinglright" unicode="&#x203a;" horiz-adv-x="604" 
d="M106 171l293 379l-293 390h70l294 -380v-19l-294 -370h-70z" />
    <glyph glyph-name="uni205F" unicode="&#x205f;" horiz-adv-x="460" 
 />
    <glyph glyph-name="Euro" unicode="&#x20ac;" horiz-adv-x="1060" 
d="M82 553v55h187v222h-187v56h187v56q0 244 130.5 389.5t342.5 145.5q54 0 107 -8t115 -23v-58q-53 16 -109.5 25.5t-112.5 9.5q-193 0 -306 -128.5t-113 -350.5v-58h593v-56h-593v-222h593v-55h-593v-39q0 -219 114.5 -350t306.5 -131q57 0 113 8.5t107 25.5v-57
q-52 -15 -108 -23t-112 -8q-212 0 -343.5 145t-131.5 390v39h-187z" />
    <glyph glyph-name="trademark" unicode="&#x2122;" horiz-adv-x="1247" 
d="M90 1399v57h384v-57h-158v-480h-56v480h-170zM552 919v537h75l181 -452h6l183 452h69v-537h-55v421l-6 1l-169 -422h-51l-172 436l-6 -1v-435h-55z" />
    <glyph glyph-name="uniE000" unicode="&#xe000;" horiz-adv-x="1080" 
d="M0 0v1080h1080v-1080h-1080z" />
    <hkern u1="&#x22;" u2="w" k="-11" />
    <hkern u1="&#x27;" u2="w" k="-11" />
    <hkern u1="&#x28;" u2="Y" k="-22" />
    <hkern u1="&#x28;" u2="W" k="-18" />
    <hkern u1="&#x28;" u2="V" k="-20" />
    <hkern u1="A" u2="w" k="33" />
    <hkern u1="A" u2="t" k="17" />
    <hkern u1="A" u2="&#x3f;" k="61" />
    <hkern u1="C" u2="&#x7d;" k="17" />
    <hkern u1="C" u2="]" k="12" />
    <hkern u1="C" u2="&#x29;" k="26" />
    <hkern u1="E" u2="w" k="22" />
    <hkern u1="E" u2="f" k="18" />
    <hkern u1="F" u2="&#x2026;" k="234" />
    <hkern u1="F" u2="&#x201e;" k="234" />
    <hkern u1="F" u2="&#x201a;" k="234" />
    <hkern u1="F" u2="&#x119;" k="21" />
    <hkern u1="F" u2="&#x107;" k="21" />
    <hkern u1="F" u2="&#x105;" k="34" />
    <hkern u1="F" u2="&#x104;" k="59" />
    <hkern u1="F" u2="&#xf3;" k="21" />
    <hkern u1="F" u2="y" k="24" />
    <hkern u1="F" u2="v" k="24" />
    <hkern u1="F" u2="u" k="22" />
    <hkern u1="F" u2="r" k="26" />
    <hkern u1="F" u2="q" k="21" />
    <hkern u1="F" u2="o" k="21" />
    <hkern u1="F" u2="g" k="21" />
    <hkern u1="F" u2="e" k="21" />
    <hkern u1="F" u2="d" k="21" />
    <hkern u1="F" u2="c" k="21" />
    <hkern u1="F" u2="a" k="34" />
    <hkern u1="F" u2="T" k="-20" />
    <hkern u1="F" u2="A" k="59" />
    <hkern u1="F" u2="&#x3a;" k="234" />
    <hkern u1="F" u2="&#x2e;" k="234" />
    <hkern u1="F" u2="&#x2c;" k="234" />
    <hkern u1="K" u2="w" k="63" />
    <hkern u1="L" u2="w" k="92" />
    <hkern u1="P" u2="t" k="-14" />
    <hkern u1="Q" u2="Y" k="35" />
    <hkern u1="Q" u2="W" k="20" />
    <hkern u1="Q" u2="V" k="28" />
    <hkern u1="Q" u2="T" k="43" />
    <hkern u1="R" u2="Y" k="48" />
    <hkern u1="R" u2="V" k="19" />
    <hkern u1="R" u2="T" k="80" />
    <hkern u1="T" u2="&#xbb;" k="216" />
    <hkern u1="T" u2="&#xab;" k="328" />
    <hkern u1="T" u2="w" k="57" />
    <hkern u1="T" u2="r" k="75" />
    <hkern u1="V" u2="&#x7d;" k="-19" />
    <hkern u1="V" u2="r" k="30" />
    <hkern u1="V" u2="]" k="-17" />
    <hkern u1="V" u2="&#x29;" k="-20" />
    <hkern u1="W" u2="&#x7d;" k="-14" />
    <hkern u1="W" u2="r" k="21" />
    <hkern u1="W" u2="]" k="-12" />
    <hkern u1="W" u2="&#x29;" k="-15" />
    <hkern u1="Y" u2="&#xbb;" k="51" />
    <hkern u1="Y" u2="&#xab;" k="82" />
    <hkern u1="Y" u2="&#x7d;" k="-19" />
    <hkern u1="Y" u2="t" k="22" />
    <hkern u1="Y" u2="r" k="40" />
    <hkern u1="Y" u2="f" k="22" />
    <hkern u1="Y" u2="]" k="-18" />
    <hkern u1="Y" u2="&#x2a;" k="49" />
    <hkern u1="Y" u2="&#x29;" k="-20" />
    <hkern u1="Y" u2="&#x26;" k="30" />
    <hkern u1="Z" u2="w" k="27" />
    <hkern u1="[" u2="U" k="18" />
    <hkern u1="[" u2="J" k="18" />
    <hkern u1="f" u2="&#x201d;" k="-16" />
    <hkern u1="f" u2="&#x201c;" k="-16" />
    <hkern u1="f" u2="&#x2019;" k="-16" />
    <hkern u1="f" u2="&#x2018;" k="-16" />
    <hkern u1="f" u2="&#x119;" k="24" />
    <hkern u1="f" u2="&#x107;" k="24" />
    <hkern u1="f" u2="&#x7d;" k="-19" />
    <hkern u1="f" u2="q" k="24" />
    <hkern u1="f" u2="g" k="24" />
    <hkern u1="f" u2="e" k="24" />
    <hkern u1="f" u2="d" k="24" />
    <hkern u1="f" u2="c" k="24" />
    <hkern u1="f" u2="]" k="-18" />
    <hkern u1="f" u2="&#x29;" k="-20" />
    <hkern u1="f" u2="&#x27;" k="-16" />
    <hkern u1="f" u2="&#x22;" k="-16" />
    <hkern u1="k" u2="&#x119;" k="20" />
    <hkern u1="k" u2="&#x107;" k="20" />
    <hkern u1="k" u2="q" k="20" />
    <hkern u1="k" u2="g" k="20" />
    <hkern u1="k" u2="e" k="20" />
    <hkern u1="k" u2="d" k="20" />
    <hkern u1="k" u2="c" k="20" />
    <hkern u1="r" u2="w" k="-17" />
    <hkern u1="r" u2="t" k="-17" />
    <hkern u1="r" u2="f" k="-15" />
    <hkern u1="v" u2="f" k="-13" />
    <hkern u1="w" u2="&#x2026;" k="124" />
    <hkern u1="w" u2="&#x201e;" k="124" />
    <hkern u1="w" u2="&#x201a;" k="124" />
    <hkern u1="w" u2="&#x3a;" k="124" />
    <hkern u1="w" u2="&#x2e;" k="124" />
    <hkern u1="w" u2="&#x2c;" k="124" />
    <hkern u1="y" u2="f" k="-13" />
    <hkern u1="&#x7b;" u2="U" k="20" />
    <hkern u1="&#x7b;" u2="J" k="20" />
    <hkern u1="&#x104;" u2="w" k="33" />
    <hkern u1="&#x104;" u2="t" k="17" />
    <hkern u1="&#x104;" u2="&#x3f;" k="61" />
    <hkern u1="&#x106;" u2="&#x7d;" k="17" />
    <hkern u1="&#x106;" u2="]" k="12" />
    <hkern u1="&#x106;" u2="&#x29;" k="26" />
    <hkern u1="&#x118;" u2="w" k="22" />
    <hkern u1="&#x118;" u2="f" k="18" />
    <hkern u1="&#x179;" u2="w" k="27" />
    <hkern u1="&#x17b;" u2="w" k="27" />
    <hkern u1="&#x2018;" u2="w" k="-11" />
    <hkern u1="&#x2019;" u2="w" k="-11" />
    <hkern u1="&#x201c;" u2="w" k="-11" />
    <hkern u1="&#x201d;" u2="w" k="-11" />
    <hkern g1="B"
	g2="T"
	k="27" />
    <hkern g1="B"
	g2="V"
	k="24" />
    <hkern g1="B"
	g2="Y"
	k="55" />
    <hkern g1="H,I,M,N,Nacute"
	g2="T"
	k="29" />
    <hkern g1="H,I,M,N,Nacute"
	g2="Y"
	k="28" />
    <hkern g1="H,I,M,N,Nacute"
	g2="A,Aogonek"
	k="-18" />
    <hkern g1="H,I,M,N,Nacute"
	g2="X"
	k="-17" />
    <hkern g1="D,O,Oacute"
	g2="T"
	k="27" />
    <hkern g1="D,O,Oacute"
	g2="V"
	k="22" />
    <hkern g1="D,O,Oacute"
	g2="Y"
	k="43" />
    <hkern g1="D,O,Oacute"
	g2="A,Aogonek"
	k="21" />
    <hkern g1="D,O,Oacute"
	g2="X"
	k="22" />
    <hkern g1="D,O,Oacute"
	g2="comma,period,colon,quotesinglbase,quotedblbase,ellipsis"
	k="102" />
    <hkern g1="D,O,Oacute"
	g2="Z,Zacute,Zdotaccent"
	k="23" />
    <hkern g1="C,Cacute"
	g2="T"
	k="29" />
    <hkern g1="E,Eogonek"
	g2="v,y"
	k="26" />
    <hkern g1="E,Eogonek"
	g2="o,oacute"
	k="19" />
    <hkern g1="E,Eogonek"
	g2="T"
	k="-20" />
    <hkern g1="E,Eogonek"
	g2="u"
	k="17" />
    <hkern g1="E,Eogonek"
	g2="c,d,e,g,q,cacute,eogonek"
	k="19" />
    <hkern g1="T"
	g2="v,y"
	k="72" />
    <hkern g1="T"
	g2="C,G,O,Q,Oacute,Cacute"
	k="28" />
    <hkern g1="T"
	g2="o,oacute"
	k="99" />
    <hkern g1="T"
	g2="W"
	k="-15" />
    <hkern g1="T"
	g2="T"
	k="-16" />
    <hkern g1="T"
	g2="u"
	k="95" />
    <hkern g1="T"
	g2="z,zacute,zdotaccent"
	k="60" />
    <hkern g1="T"
	g2="V"
	k="-16" />
    <hkern g1="T"
	g2="Y"
	k="-16" />
    <hkern g1="T"
	g2="A,Aogonek"
	k="79" />
    <hkern g1="T"
	g2="comma,period,colon,quotesinglbase,quotedblbase,ellipsis"
	k="218" />
    <hkern g1="T"
	g2="c,d,e,g,q,cacute,eogonek"
	k="99" />
    <hkern g1="T"
	g2="x"
	k="77" />
    <hkern g1="T"
	g2="hyphen,endash,emdash"
	k="232" />
    <hkern g1="T"
	g2="m,n,p,nacute"
	k="109" />
    <hkern g1="T"
	g2="S,Sacute"
	k="16" />
    <hkern g1="T"
	g2="a,aogonek"
	k="113" />
    <hkern g1="T"
	g2="s,sacute"
	k="116" />
    <hkern g1="K"
	g2="v,y"
	k="40" />
    <hkern g1="K"
	g2="C,G,O,Q,Oacute,Cacute"
	k="31" />
    <hkern g1="K"
	g2="o,oacute"
	k="27" />
    <hkern g1="K"
	g2="u"
	k="23" />
    <hkern g1="K"
	g2="c,d,e,g,q,cacute,eogonek"
	k="26" />
    <hkern g1="K"
	g2="hyphen,endash,emdash"
	k="64" />
    <hkern g1="K"
	g2="m,n,p,nacute"
	k="23" />
    <hkern g1="L"
	g2="v,y"
	k="133" />
    <hkern g1="L"
	g2="C,G,O,Q,Oacute,Cacute"
	k="65" />
    <hkern g1="L"
	g2="U"
	k="54" />
    <hkern g1="L"
	g2="quotedbl,quotesingle,quoteleft,quoteright,quotedblleft,quotedblright"
	k="138" />
    <hkern g1="L"
	g2="W"
	k="143" />
    <hkern g1="L"
	g2="T"
	k="275" />
    <hkern g1="L"
	g2="u"
	k="44" />
    <hkern g1="L"
	g2="V"
	k="175" />
    <hkern g1="L"
	g2="Y"
	k="239" />
    <hkern g1="L"
	g2="A,Aogonek"
	k="-19" />
    <hkern g1="P"
	g2="v,y"
	k="-15" />
    <hkern g1="P"
	g2="o,oacute"
	k="13" />
    <hkern g1="P"
	g2="A,Aogonek"
	k="138" />
    <hkern g1="P"
	g2="X"
	k="31" />
    <hkern g1="P"
	g2="comma,period,colon,quotesinglbase,quotedblbase,ellipsis"
	k="324" />
    <hkern g1="P"
	g2="Z,Zacute,Zdotaccent"
	k="26" />
    <hkern g1="P"
	g2="c,d,e,g,q,cacute,eogonek"
	k="13" />
    <hkern g1="P"
	g2="a,aogonek"
	k="11" />
    <hkern g1="J,U"
	g2="A,Aogonek"
	k="22" />
    <hkern g1="V"
	g2="v,y"
	k="11" />
    <hkern g1="V"
	g2="C,G,O,Q,Oacute,Cacute"
	k="13" />
    <hkern g1="V"
	g2="o,oacute"
	k="46" />
    <hkern g1="V"
	g2="u"
	k="28" />
    <hkern g1="V"
	g2="A,Aogonek"
	k="75" />
    <hkern g1="V"
	g2="comma,period,colon,quotesinglbase,quotedblbase,ellipsis"
	k="225" />
    <hkern g1="V"
	g2="c,d,e,g,q,cacute,eogonek"
	k="44" />
    <hkern g1="V"
	g2="hyphen,endash,emdash"
	k="37" />
    <hkern g1="V"
	g2="a,aogonek"
	k="46" />
    <hkern g1="X"
	g2="v,y"
	k="31" />
    <hkern g1="X"
	g2="C,G,O,Q,Oacute,Cacute"
	k="25" />
    <hkern g1="X"
	g2="o,oacute"
	k="21" />
    <hkern g1="X"
	g2="u"
	k="21" />
    <hkern g1="X"
	g2="V"
	k="-14" />
    <hkern g1="X"
	g2="c,d,e,g,q,cacute,eogonek"
	k="26" />
    <hkern g1="X"
	g2="hyphen,endash,emdash"
	k="46" />
    <hkern g1="Y"
	g2="v,y"
	k="20" />
    <hkern g1="Y"
	g2="C,G,O,Q,Oacute,Cacute"
	k="29" />
    <hkern g1="Y"
	g2="U"
	k="96" />
    <hkern g1="Y"
	g2="o,oacute"
	k="65" />
    <hkern g1="Y"
	g2="W"
	k="-17" />
    <hkern g1="Y"
	g2="T"
	k="-17" />
    <hkern g1="Y"
	g2="u"
	k="39" />
    <hkern g1="Y"
	g2="z,zacute,zdotaccent"
	k="30" />
    <hkern g1="Y"
	g2="V"
	k="-18" />
    <hkern g1="Y"
	g2="Y"
	k="-18" />
    <hkern g1="Y"
	g2="A,Aogonek"
	k="94" />
    <hkern g1="Y"
	g2="X"
	k="-13" />
    <hkern g1="Y"
	g2="comma,period,colon,quotesinglbase,quotedblbase,ellipsis"
	k="211" />
    <hkern g1="Y"
	g2="c,d,e,g,q,cacute,eogonek"
	k="65" />
    <hkern g1="Y"
	g2="x"
	k="23" />
    <hkern g1="Y"
	g2="hyphen,endash,emdash"
	k="52" />
    <hkern g1="Y"
	g2="m,n,p,nacute"
	k="40" />
    <hkern g1="Y"
	g2="S,Sacute"
	k="16" />
    <hkern g1="Y"
	g2="a,aogonek"
	k="73" />
    <hkern g1="Y"
	g2="s,sacute"
	k="58" />
    <hkern g1="Y"
	g2="J"
	k="96" />
    <hkern g1="W"
	g2="o,oacute"
	k="31" />
    <hkern g1="W"
	g2="T"
	k="-14" />
    <hkern g1="W"
	g2="u"
	k="19" />
    <hkern g1="W"
	g2="A,Aogonek"
	k="43" />
    <hkern g1="W"
	g2="comma,period,colon,quotesinglbase,quotedblbase,ellipsis"
	k="123" />
    <hkern g1="W"
	g2="c,d,e,g,q,cacute,eogonek"
	k="31" />
    <hkern g1="W"
	g2="hyphen,endash,emdash"
	k="60" />
    <hkern g1="W"
	g2="a,aogonek"
	k="33" />
    <hkern g1="Z,Zacute,Zdotaccent"
	g2="v,y"
	k="27" />
    <hkern g1="Z,Zacute,Zdotaccent"
	g2="C,G,O,Q,Oacute,Cacute"
	k="26" />
    <hkern g1="Z,Zacute,Zdotaccent"
	g2="o,oacute"
	k="21" />
    <hkern g1="Z,Zacute,Zdotaccent"
	g2="u"
	k="19" />
    <hkern g1="Z,Zacute,Zdotaccent"
	g2="A,Aogonek"
	k="-13" />
    <hkern g1="Z,Zacute,Zdotaccent"
	g2="c,d,e,g,q,cacute,eogonek"
	k="21" />
    <hkern g1="a,aogonek"
	g2="v,y"
	k="15" />
    <hkern g1="a,aogonek"
	g2="quotedbl,quotesingle,quoteleft,quoteright,quotedblleft,quotedblright"
	k="67" />
    <hkern g1="c,cacute"
	g2="quotedbl,quotesingle,quoteleft,quoteright,quotedblleft,quotedblright"
	k="11" />
    <hkern g1="b,p"
	g2="v,y"
	k="11" />
    <hkern g1="b,p"
	g2="quotedbl,quotesingle,quoteleft,quoteright,quotedblleft,quotedblright"
	k="29" />
    <hkern g1="b,p"
	g2="z,zacute,zdotaccent"
	k="15" />
    <hkern g1="b,p"
	g2="x"
	k="15" />
    <hkern g1="e,eogonek"
	g2="v,y"
	k="13" />
    <hkern g1="e,eogonek"
	g2="quotedbl,quotesingle,quoteleft,quoteright,quotedblleft,quotedblright"
	k="14" />
    <hkern g1="h,m,n,nacute"
	g2="quotedbl,quotesingle,quoteleft,quoteright,quotedblleft,quotedblright"
	k="16" />
    <hkern g1="o,oacute"
	g2="v,y"
	k="15" />
    <hkern g1="o,oacute"
	g2="quotedbl,quotesingle,quoteleft,quoteright,quotedblleft,quotedblright"
	k="20" />
    <hkern g1="o,oacute"
	g2="z,zacute,zdotaccent"
	k="16" />
    <hkern g1="o,oacute"
	g2="x"
	k="21" />
    <hkern g1="v,y"
	g2="quotedbl,quotesingle,quoteleft,quoteright,quotedblleft,quotedblright"
	k="-15" />
    <hkern g1="v,y"
	g2="o,oacute"
	k="15" />
    <hkern g1="v,y"
	g2="comma,period,colon,quotesinglbase,quotedblbase,ellipsis"
	k="107" />
    <hkern g1="v,y"
	g2="c,d,e,g,q,cacute,eogonek"
	k="13" />
    <hkern g1="v,y"
	g2="a,aogonek"
	k="15" />
    <hkern g1="r"
	g2="v,y"
	k="-18" />
    <hkern g1="r"
	g2="quotedbl,quotesingle,quoteleft,quoteright,quotedblleft,quotedblright"
	k="-16" />
    <hkern g1="r"
	g2="o,oacute"
	k="20" />
    <hkern g1="r"
	g2="comma,period,colon,quotesinglbase,quotedblbase,ellipsis"
	k="123" />
    <hkern g1="r"
	g2="c,d,e,g,q,cacute,eogonek"
	k="19" />
    <hkern g1="x"
	g2="o,oacute"
	k="20" />
    <hkern g1="x"
	g2="c,d,e,g,q,cacute,eogonek"
	k="20" />
    <hkern g1="z,zacute,zdotaccent"
	g2="o,oacute"
	k="16" />
    <hkern g1="z,zacute,zdotaccent"
	g2="c,d,e,g,q,cacute,eogonek"
	k="16" />
    <hkern g1="quotedbl,quotesingle,quoteleft,quoteright,quotedblleft,quotedblright"
	g2="quotedbl,quotesingle,quoteleft,quoteright,quotedblleft,quotedblright"
	k="107" />
    <hkern g1="quotedbl,quotesingle,quoteleft,quoteright,quotedblleft,quotedblright"
	g2="o,oacute"
	k="61" />
    <hkern g1="quotedbl,quotesingle,quoteleft,quoteright,quotedblleft,quotedblright"
	g2="A,Aogonek"
	k="120" />
    <hkern g1="quotedbl,quotesingle,quoteleft,quoteright,quotedblleft,quotedblright"
	g2="c,d,e,g,q,cacute,eogonek"
	k="59" />
    <hkern g1="quotedbl,quotesingle,quoteleft,quoteright,quotedblleft,quotedblright"
	g2="m,n,p,nacute"
	k="20" />
    <hkern g1="quotedbl,quotesingle,quoteleft,quoteright,quotedblleft,quotedblright"
	g2="a,aogonek"
	k="50" />
    <hkern g1="quotedbl,quotesingle,quoteleft,quoteright,quotedblleft,quotedblright"
	g2="s,sacute"
	k="80" />
    <hkern g1="comma,period,colon,quotesinglbase,quotedblbase,ellipsis"
	g2="quotedbl,quotesingle,quoteleft,quoteright,quotedblleft,quotedblright"
	k="170" />
  </font>
</defs></svg>
